<svg width="115" height="49" viewBox="0 0 115 49" fill="none" xmlns="http://www.w3.org/2000/svg">
<g clip-path="url(#clip0)">
<path fill-rule="evenodd" clip-rule="evenodd" d="M-17.6924 31.8316L39.1757 31.6464C40.2459 31.6435 41.2237 31.0297 41.7064 30.0577L47.1629 19.0616L56.3755 47.0236C56.7626 48.2028 57.8466 48.9982 59.0682 49H59.1592C60.4139 48.9602 61.4943 48.0874 61.8178 46.8529L70.348 14.4433L76.214 38.3251C76.595 39.8754 78.1386 40.818 79.6623 40.4306C80.5235 40.2114 81.2351 39.5954 81.5852 38.7649L87.7013 24.2443L90.6442 30.2372C91.1294 31.2199 92.12 31.8377 93.2005 31.8316H104.574V26.0442H94.9662L90.0727 16.0695C89.5549 15.0802 88.5412 14.4642 87.4397 14.4693C86.3326 14.5022 85.3452 15.1866 84.9091 16.2229L79.7028 28.5848L73.2198 2.19415C72.906 0.913686 71.7811 0.0115715 70.4845 0.000720096C69.1829 -0.0289405 68.0342 0.860513 67.715 2.14496L58.7952 36.0767L50.4214 10.6583C49.9238 9.14269 48.3127 8.32449 46.8234 8.83089C46.1129 9.07252 45.5247 9.58977 45.1867 10.2705L37.4441 25.8561L-17.6924 26.0442V31.8316ZM115 26.7271H110.577V31.1817H115V26.7271Z" fill="url(#paint0_linear)"/>
</g>
<defs>
<linearGradient id="paint0_linear" x1="2.92408" y1="49" x2="130.481" y2="49" gradientUnits="userSpaceOnUse">
<stop stop-color="#4B85FF" stop-opacity="0"/>
<stop offset="0.411458" stop-color="#4B85FF"/>
<stop offset="1" stop-color="#4B85FF" stop-opacity="0"/>
</linearGradient>
<clipPath id="clip0">
<rect width="115" height="49" fill="white"/>
</clipPath>
</defs>
</svg>
