<svg width="15" height="17" viewBox="0 0 15 17" fill="none" xmlns="http://www.w3.org/2000/svg">
<path fill-rule="evenodd" clip-rule="evenodd" d="M4.86108 0.708008C5.25229 0.708008 5.56942 1.02514 5.56942 1.41634V2.12467H9.81942V1.41634C9.81942 1.02514 10.1365 0.708008 10.5278 0.708008C10.919 0.708008 11.2361 1.02514 11.2361 1.41634V2.12467H12.6528C13.8264 2.12467 14.7778 3.07607 14.7778 4.24967V14.1663C14.7778 15.3399 13.8264 16.2913 12.6528 16.2913H2.73608C1.56248 16.2913 0.611084 15.3399 0.611084 14.1663V4.24967C0.611084 3.07607 1.56248 2.12467 2.73608 2.12467H4.15275V1.41634C4.15275 1.02514 4.46988 0.708008 4.86108 0.708008ZM4.15275 3.54134H2.73608C2.34488 3.54134 2.02775 3.85847 2.02775 4.24967V6.37467H13.3611V4.24967C13.3611 3.85847 13.044 3.54134 12.6528 3.54134H11.2361V4.24967C11.2361 4.64088 10.919 4.95801 10.5278 4.95801C10.1365 4.95801 9.81942 4.64088 9.81942 4.24967V3.54134H5.56942V4.24967C5.56942 4.64088 5.25229 4.95801 4.86108 4.95801C4.46988 4.95801 4.15275 4.64088 4.15275 4.24967V3.54134ZM13.3611 7.79134H2.02775V14.1663C2.02775 14.5575 2.34488 14.8747 2.73608 14.8747H12.6528C13.044 14.8747 13.3611 14.5575 13.3611 14.1663V7.79134Z" fill="#BDBDBD"/>
</svg>
