<svg width="24" height="24" viewBox="0 0 24 24" fill="none" xmlns="http://www.w3.org/2000/svg">
<path fill-rule="evenodd" clip-rule="evenodd" d="M3.5999 5.84967C3.5999 5.77241 3.65339 5.582 4.03141 5.30998C4.39527 5.04816 4.96052 4.78756 5.71301 4.55855C7.2105 4.10279 9.31555 3.81198 11.6666 3.81198C14.0176 3.81198 16.1226 4.10279 17.6201 4.55855C18.3726 4.78756 18.9379 5.04816 19.3017 5.30998C19.6797 5.582 19.7332 5.77241 19.7332 5.84967C19.7332 5.84987 19.7332 5.85008 19.7332 5.85029C19.7329 5.92794 19.6787 6.11806 19.3017 6.38935C18.9379 6.65117 18.3726 6.91177 17.6201 7.14078C16.1226 7.59654 14.0176 7.88735 11.6666 7.88735C9.31555 7.88735 7.2105 7.59654 5.71301 7.14078C4.96052 6.91177 4.39527 6.65117 4.03141 6.38935C3.65339 6.11733 3.5999 5.92692 3.5999 5.84967ZM3.5999 7.54124C4.07921 7.83269 4.6824 8.08147 5.36361 8.28879C7.00283 8.78769 9.23112 9.08735 11.6666 9.08735C14.102 9.08735 16.3303 8.78769 17.9695 8.28879C18.6507 8.08147 19.2539 7.83269 19.7332 7.54124V9.71198C19.7332 9.76618 19.6923 9.9439 19.3101 10.2091C18.9459 10.4618 18.3796 10.7136 17.6259 10.9348C16.1263 11.3749 14.0192 11.6555 11.6666 11.6555C9.31394 11.6555 7.20684 11.3749 5.70727 10.9348C4.95354 10.7136 4.38728 10.4618 4.02302 10.2091C3.64086 9.9439 3.5999 9.76618 3.5999 9.71198V7.54124ZM20.9332 5.8515V8.85901C21.3109 9.19543 21.5999 9.62933 21.5999 10.162L21.5999 10.162V14.0243C21.5999 14.5501 21.3077 14.9727 20.9332 15.2968V18.2435C20.9332 18.8917 20.4892 19.3831 19.9942 19.7265C19.4814 20.0823 18.7784 20.3787 17.9638 20.6177C16.3266 21.0982 14.1004 21.387 11.6666 21.387C9.23273 21.387 7.0065 21.0982 5.36935 20.6177C4.55472 20.3787 3.85178 20.0823 3.33893 19.7265C2.84397 19.3831 2.3999 18.8917 2.3999 18.2435V14.3812V14.3812C2.3999 13.8485 2.6889 13.4146 3.06657 13.0782V10.9845C2.69206 10.6603 2.3999 10.2377 2.3999 9.71198V5.84967C2.3999 5.19854 2.83144 4.69506 3.33053 4.33594C3.84378 3.96662 4.54774 3.65885 5.36361 3.41054C7.00283 2.91165 9.23112 2.61198 11.6666 2.61198C14.102 2.61198 16.3303 2.91165 17.9695 3.41054C18.7854 3.65885 19.4894 3.96662 20.0026 4.33594C20.5017 4.69506 20.9332 5.19854 20.9332 5.84967C20.9332 5.85028 20.9332 5.85089 20.9332 5.8515ZM3.5999 16.0727V18.2435C3.5999 18.2977 3.64086 18.4754 4.02302 18.7406C4.38728 18.9933 4.95354 19.2451 5.70727 19.4663C7.20684 19.9064 9.31394 20.187 11.6666 20.187C14.0192 20.187 16.1263 19.9064 17.6259 19.4663C18.3796 19.2451 18.9459 18.9933 19.3101 18.7406C19.6923 18.4754 19.7332 18.2977 19.7332 18.2435V16.2097C19.5374 16.3274 19.3254 16.4336 19.103 16.5299C18.5287 16.7783 17.839 16.98 17.0743 17.1393C15.5443 17.4581 13.6569 17.6188 11.6666 17.6188C9.23112 17.6188 7.00283 17.3192 5.36361 16.8203C4.6824 16.613 4.07921 16.3642 3.5999 16.0727ZM20.3999 11.8536C19.9206 12.145 19.3174 12.3938 18.6362 12.6011C16.997 13.1 14.7687 13.3997 12.3332 13.3997C10.5116 13.3997 8.81008 13.2321 7.38565 12.9408C6.12219 12.6824 5.02973 12.3175 4.26657 11.8535V14.0243C4.26657 14.0785 4.30752 14.2562 4.68968 14.5214C5.05394 14.7741 5.62021 15.0259 6.37393 15.2471C7.8735 15.6872 9.9806 15.9678 12.3332 15.9678C14.6859 15.9678 16.793 15.6872 18.2925 15.2471C19.0463 15.0259 19.6125 14.7741 19.9768 14.5214C20.3589 14.2562 20.3999 14.0785 20.3999 14.0243V11.8536Z" fill="white"/>
</svg>
