<svg width="16" height="12" viewBox="0 0 16 12" fill="none" xmlns="http://www.w3.org/2000/svg">
<path fill-rule="evenodd" clip-rule="evenodd" d="M5.70952 0.280153C5.70952 0.280153 8.34946 0.000848432 10.0455 4.92946e-05C11.7539 -0.000755715 14.4134 0.280153 14.4134 0.280153C14.9191 0.280153 15.3295 0.75041 15.3295 1.3275C15.3295 1.3275 15.5 4.19841 15.5 6.04054C15.5 7.88267 15.3295 10.7536 15.3295 10.7536C15.3295 11.3317 14.9191 11.8009 14.4134 11.8009C14.4134 11.8009 11.745 11.9836 10.0455 11.9836C8.34592 11.9836 6.63636 12.081 5.70952 11.8009C5.57693 11.7609 5.47131 11.7454 5.38518 11.647C5.38518 11.647 5.1202 10.9704 4.79332 10.9704C4.46619 10.9704 4.48746 11.4665 4.20146 11.648C4.08168 11.724 3.87713 11.8009 3.87713 11.8009C3.87713 11.8009 3.17366 11.9856 2.71591 11.9836C2.27051 11.9817 1.9893 12.0186 1.58665 11.8009C1.12921 11.5537 0.787976 11.3162 0.670455 10.7536C0.500005 9.93758 0.499999 7.88264 0.5 6.04049C0.500001 4.19838 0.499994 3.23469 0.670455 1.3275C0.721886 0.75206 1.58665 0.280153 1.58665 0.280153C1.58665 0.280153 2.26465 0.00296986 2.71591 2.40734e-05C3.17937 -0.00300139 3.87713 0.280153 3.87713 0.280153C3.87713 0.280153 4.11534 0.335662 4.20146 0.433065C4.28758 0.530468 4.46619 1.1107 4.79332 1.1107C5.12045 1.1107 5.38518 0.433065 5.38518 0.433065C5.47131 0.335662 5.58766 0.280153 5.70952 0.280153ZM7.08381 3.94585C7.08381 4.81201 7.7004 5.51687 8.4581 5.51687C9.21579 5.51687 9.83239 4.81201 9.83239 3.94585C9.83239 3.0797 9.21579 2.37484 8.4581 2.37484C7.7004 2.37484 7.08381 3.0797 7.08381 3.94585ZM8 3.94585C8 3.65679 8.20523 3.42218 8.4581 3.42218C8.71097 3.42218 8.91619 3.65679 8.91619 3.94585C8.91619 4.23492 8.71097 4.46952 8.4581 4.46952C8.20523 4.46952 8 4.23492 8 3.94585ZM11.2067 9.70624C10.449 9.70624 9.83239 9.00138 9.83239 8.13523C9.83239 7.26907 10.449 6.56421 11.2067 6.56421C11.9644 6.56421 12.581 7.26907 12.581 8.13523C12.581 9.00138 11.9644 9.70624 11.2067 9.70624ZM11.2067 7.61155C10.9547 7.61155 10.7486 7.84721 10.7486 8.13523C10.7486 8.42324 10.9547 8.6589 11.2067 8.6589C11.4586 8.6589 11.6648 8.42324 11.6648 8.13523C11.6648 7.84721 11.4586 7.61155 11.2067 7.61155ZM7.24872 9.58473C7.33484 9.66642 7.43837 9.70622 7.5419 9.70622C7.67291 9.70622 7.80301 9.64128 7.8928 9.51875L12.4738 3.23469C12.6359 3.0116 12.6103 2.68169 12.416 2.49631C12.2227 2.31303 11.9341 2.34026 11.7711 2.56334L7.19008 8.8474C7.02792 9.06944 7.05448 9.39935 7.24872 9.58473ZM4.79332 2.37484C4.54032 2.37484 4.33523 2.57994 4.33523 2.83294V2.96409C4.33523 3.21709 4.54032 3.42218 4.79332 3.42218C5.04632 3.42218 5.25142 3.21708 5.25142 2.96409V2.83294C5.25142 2.57994 5.04632 2.37484 4.79332 2.37484ZM4.79332 9.70624C4.54032 9.70624 4.33523 9.50114 4.33523 9.24814V9.11699C4.33523 8.86399 4.54032 8.6589 4.79332 8.6589C5.04632 8.6589 5.25142 8.86399 5.25142 9.11699V9.24814C5.25142 9.50114 5.04632 9.70624 4.79332 9.70624ZM4.79332 6.56421C4.54032 6.56421 4.33523 6.76931 4.33523 7.02231V7.15346C4.33523 7.40646 4.54032 7.61155 4.79332 7.61155C5.04632 7.61155 5.25142 7.40646 5.25142 7.15346V7.02231C5.25142 6.76931 5.04632 6.56421 4.79332 6.56421ZM4.79332 5.51687C4.54032 5.51687 4.33523 5.31177 4.33523 5.05877V4.92762C4.33523 4.67462 4.54032 4.46952 4.79332 4.46952C5.04632 4.46952 5.25142 4.67462 5.25142 4.92762V5.05877C5.25142 5.31177 5.04632 5.51687 4.79332 5.51687Z" fill="#E21683"/>
</svg>
